Flow report for vga
Tue Sep 08 15:54:05 2020
Quartus II 64-Bit Version 13.0.1 Build 232 06/12/2013 Service Pack 1 SJ Web Edition


---------------------
; Table of Contents ;
---------------------
  1. Legal Notice
  2. Flow Summary
  3. Flow Settings
  4. Flow Non-Default Global Settings
  5. Flow Elapsed Time
  6. Flow OS Summary
  7. Flow Log
  8. Flow Messages
  9. Flow Suppressed Messages



----------------
; Legal Notice ;
----------------
Copyright (C) 1991-2013 Altera Corporation
Your use of Altera Corporation's design tools, logic functions 
and other software and tools, and its AMPP partner logic 
functions, and any output files from any of the foregoing 
(including device programming or simulation files), and any 
associated documentation or information are expressly subject 
to the terms and conditions of the Altera Program License 
Subscription Agreement, Altera MegaCore Function License 
Agreement, or other applicable license agreement, including, 
without limitation, that your use is for the sole purpose of 
programming logic devices manufactured by Altera and sold by 
Altera or its authorized distributors.  Please refer to the 
applicable agreement for further details.



+--------------------------------------------------------------------------------------+
; Flow Summary                                                                         ;
+------------------------------------+-------------------------------------------------+
; Flow Status                        ; Successful - Tue Sep 08 15:54:05 2020           ;
; Quartus II 64-Bit Version          ; 13.0.1 Build 232 06/12/2013 SP 1 SJ Web Edition ;
; Revision Name                      ; vga                                             ;
; Top-level Entity Name              ; vga                                             ;
; Family                             ; Cyclone IV E                                    ;
; Device                             ; EP4CE22F17C6                                    ;
; Timing Models                      ; Final                                           ;
; Total logic elements               ; 62 / 22,320 ( < 1 % )                           ;
;     Total combinational functions  ; 61 / 22,320 ( < 1 % )                           ;
;     Dedicated logic registers      ; 34 / 22,320 ( < 1 % )                           ;
; Total registers                    ; 34                                              ;
; Total pins                         ; 55 / 154 ( 36 % )                               ;
; Total virtual pins                 ; 0                                               ;
; Total memory bits                  ; 0 / 608,256 ( 0 % )                             ;
; Embedded Multiplier 9-bit elements ; 0 / 132 ( 0 % )                                 ;
; Total PLLs                         ; 0 / 4 ( 0 % )                                   ;
+------------------------------------+-------------------------------------------------+


+-----------------------------------------+
; Flow Settings                           ;
+-------------------+---------------------+
; Option            ; Setting             ;
+-------------------+---------------------+
; Start date & time ; 09/08/2020 15:14:14 ;
; Main task         ; Compilation         ;
; Revision Name     ; vga                 ;
+-------------------+---------------------+


+---------------------------------------------------------------------------------------------------------------------+
; Flow Non-Default Global Settings                                                                                    ;
+-------------------------------------+--------------------------------+---------------+-------------+----------------+
; Assignment Name                     ; Value                          ; Default Value ; Entity Name ; Section Id     ;
+-------------------------------------+--------------------------------+---------------+-------------+----------------+
; COMPILER_SIGNATURE_ID               ; 35296155335447.159958885309200 ; --            ; --          ; --             ;
; EDA_OUTPUT_DATA_FORMAT              ; Verilog Hdl                    ; --            ; --          ; eda_simulation ;
; EDA_SIMULATION_TOOL                 ; ModelSim-Altera (Verilog)      ; <None>        ; --          ; --             ;
; EDA_TIME_SCALE                      ; 1 ps                           ; --            ; --          ; eda_simulation ;
; MAX_CORE_JUNCTION_TEMP              ; 85                             ; --            ; --          ; --             ;
; MIN_CORE_JUNCTION_TEMP              ; 0                              ; --            ; --          ; --             ;
; NOMINAL_CORE_SUPPLY_VOLTAGE         ; 1.2V                           ; --            ; --          ; --             ;
; PARTITION_COLOR                     ; 16764057                       ; --            ; --          ; Top            ;
; PARTITION_FITTER_PRESERVATION_LEVEL ; PLACEMENT_AND_ROUTING          ; --            ; --          ; Top            ;
; PARTITION_NETLIST_TYPE              ; SOURCE                         ; --            ; --          ; Top            ;
; PROJECT_OUTPUT_DIRECTORY            ; output_files                   ; --            ; --          ; --             ;
+-------------------------------------+--------------------------------+---------------+-------------+----------------+


+-------------------------------------------------------------------------------------------------------------------------------+
; Flow Elapsed Time                                                                                                             ;
+---------------------------+--------------+-------------------------+---------------------+------------------------------------+
; Module Name               ; Elapsed Time ; Average Processors Used ; Peak Virtual Memory ; Total CPU Time (on all processors) ;
+---------------------------+--------------+-------------------------+---------------------+------------------------------------+
; Analysis & Synthesis      ; 00:00:08     ; 1.0                     ; 4625 MB             ; 00:00:03                           ;
; Fitter                    ; 00:00:21     ; 1.0                     ; 4938 MB             ; 00:00:13                           ;
; Assembler                 ; 00:00:04     ; 1.0                     ; 4547 MB             ; 00:00:02                           ;
; TimeQuest Timing Analyzer ; 00:00:06     ; 1.0                     ; 4638 MB             ; 00:00:04                           ;
; EDA Netlist Writer        ; 00:00:02     ; 1.0                     ; 4510 MB             ; 00:00:01                           ;
; EDA Netlist Writer        ; 00:00:01     ; 1.0                     ; 4508 MB             ; 00:00:01                           ;
; EDA Netlist Writer        ; 00:00:01     ; 1.0                     ; 4524 MB             ; 00:00:01                           ;
; EDA Netlist Writer        ; 00:00:01     ; 1.0                     ; 4508 MB             ; 00:00:01                           ;
; EDA Netlist Writer        ; 00:00:02     ; 1.0                     ; 4524 MB             ; 00:00:01                           ;
; EDA Netlist Writer        ; 00:00:01     ; 1.0                     ; 4508 MB             ; 00:00:01                           ;
; EDA Netlist Writer        ; 00:00:01     ; 1.0                     ; 4524 MB             ; 00:00:01                           ;
; EDA Netlist Writer        ; 00:00:00     ; 1.0                     ; 4508 MB             ; 00:00:01                           ;
; EDA Netlist Writer        ; 00:00:02     ; 1.0                     ; 4524 MB             ; 00:00:01                           ;
; EDA Netlist Writer        ; 00:00:01     ; 1.0                     ; 4508 MB             ; 00:00:01                           ;
; EDA Netlist Writer        ; 00:00:01     ; 1.0                     ; 4524 MB             ; 00:00:01                           ;
; EDA Netlist Writer        ; 00:00:00     ; 1.0                     ; 4508 MB             ; 00:00:01                           ;
; EDA Netlist Writer        ; 00:00:01     ; 1.0                     ; 4524 MB             ; 00:00:01                           ;
; EDA Netlist Writer        ; 00:00:01     ; 1.0                     ; 4508 MB             ; 00:00:01                           ;
; EDA Netlist Writer        ; 00:00:01     ; 1.0                     ; 4524 MB             ; 00:00:01                           ;
; EDA Netlist Writer        ; 00:00:01     ; 1.0                     ; 4508 MB             ; 00:00:01                           ;
; EDA Netlist Writer        ; 00:00:01     ; 1.0                     ; 4524 MB             ; 00:00:01                           ;
; EDA Netlist Writer        ; 00:00:01     ; 1.0                     ; 4508 MB             ; 00:00:01                           ;
; EDA Netlist Writer        ; 00:00:01     ; 1.0                     ; 4508 MB             ; 00:00:01                           ;
; EDA Netlist Writer        ; 00:00:02     ; 1.0                     ; 4524 MB             ; 00:00:01                           ;
; Total                     ; 00:01:01     ; --                      ; --                  ; 00:00:42                           ;
+---------------------------+--------------+-------------------------+---------------------+------------------------------------+


+----------------------------------------------------------------------------------------+
; Flow OS Summary                                                                        ;
+---------------------------+------------------+-----------+------------+----------------+
; Module Name               ; Machine Hostname ; OS Name   ; OS Version ; Processor type ;
+---------------------------+------------------+-----------+------------+----------------+
; Analysis & Synthesis      ; Luciana          ; Windows 7 ; 6.2        ; x86_64         ;
; Fitter                    ; Luciana          ; Windows 7 ; 6.2        ; x86_64         ;
; Assembler                 ; Luciana          ; Windows 7 ; 6.2        ; x86_64         ;
; TimeQuest Timing Analyzer ; Luciana          ; Windows 7 ; 6.2        ; x86_64         ;
; EDA Netlist Writer        ; Luciana          ; Windows 7 ; 6.2        ; x86_64         ;
; EDA Netlist Writer        ; Luciana          ; Windows 7 ; 6.2        ; x86_64         ;
; EDA Netlist Writer        ; Luciana          ; Windows 7 ; 6.2        ; x86_64         ;
; EDA Netlist Writer        ; Luciana          ; Windows 7 ; 6.2        ; x86_64         ;
; EDA Netlist Writer        ; Luciana          ; Windows 7 ; 6.2        ; x86_64         ;
; EDA Netlist Writer        ; Luciana          ; Windows 7 ; 6.2        ; x86_64         ;
; EDA Netlist Writer        ; Luciana          ; Windows 7 ; 6.2        ; x86_64         ;
; EDA Netlist Writer        ; Luciana          ; Windows 7 ; 6.2        ; x86_64         ;
; EDA Netlist Writer        ; Luciana          ; Windows 7 ; 6.2        ; x86_64         ;
; EDA Netlist Writer        ; Luciana          ; Windows 7 ; 6.2        ; x86_64         ;
; EDA Netlist Writer        ; Luciana          ; Windows 7 ; 6.2        ; x86_64         ;
; EDA Netlist Writer        ; Luciana          ; Windows 7 ; 6.2        ; x86_64         ;
; EDA Netlist Writer        ; Luciana          ; Windows 7 ; 6.2        ; x86_64         ;
; EDA Netlist Writer        ; Luciana          ; Windows 7 ; 6.2        ; x86_64         ;
; EDA Netlist Writer        ; Luciana          ; Windows 7 ; 6.2        ; x86_64         ;
; EDA Netlist Writer        ; Luciana          ; Windows 7 ; 6.2        ; x86_64         ;
; EDA Netlist Writer        ; Luciana          ; Windows 7 ; 6.2        ; x86_64         ;
; EDA Netlist Writer        ; Luciana          ; Windows 7 ; 6.2        ; x86_64         ;
; EDA Netlist Writer        ; Luciana          ; Windows 7 ; 6.2        ; x86_64         ;
; EDA Netlist Writer        ; Luciana          ; Windows 7 ; 6.2        ; x86_64         ;
+---------------------------+------------------+-----------+------------+----------------+


------------
; Flow Log ;
------------
quartus_map --read_settings_files=on --write_settings_files=off vga -c vga
quartus_fit --read_settings_files=off --write_settings_files=off vga -c vga
quartus_asm --read_settings_files=off --write_settings_files=off vga -c vga
quartus_sta vga -c vga
quartus_eda --read_settings_files=off --write_settings_files=off vga -c vga
quartus_eda --gen_testbench --check_outputs=on --tool=modelsim_oem --format=verilog vga -c vga --vector_source=C:/Users/Luciana/Documents/VLSI/finalvlsi/Waveform2.vwf --testbench_file=./simulation/qsim/vga.vt
quartus_eda --functional=off --timescale=1ps --simulation=on --tool=modelsim_oem --format=verilog vga -c vga
quartus_eda --gen_testbench --check_outputs=on --tool=modelsim_oem --format=verilog vga -c vga --vector_source=C:/Users/Luciana/Documents/VLSI/finalvlsi/Waveform2.vwf --testbench_file=./simulation/qsim/vga.vt
quartus_eda --functional=off --timescale=1ps --simulation=on --tool=modelsim_oem --format=verilog vga -c vga
quartus_eda --gen_testbench --check_outputs=on --tool=modelsim_oem --format=verilog vga -c vga --vector_source=C:/Users/Luciana/Documents/VLSI/finalvlsi/Waveform2.vwf --testbench_file=./simulation/qsim/vga.vt
quartus_eda --functional=off --timescale=1ps --simulation=on --tool=modelsim_oem --format=verilog vga -c vga
quartus_eda --gen_testbench --check_outputs=on --tool=modelsim_oem --format=verilog vga -c vga --vector_source=C:/Users/Luciana/Documents/VLSI/finalvlsi/Waveform2.vwf --testbench_file=./simulation/qsim/vga.vt
quartus_eda --functional=off --timescale=1ps --simulation=on --tool=modelsim_oem --format=verilog vga -c vga
quartus_eda --gen_testbench --check_outputs=on --tool=modelsim_oem --format=verilog vga -c vga --vector_source=C:/Users/Luciana/Documents/VLSI/finalvlsi/Waveform2.vwf --testbench_file=./simulation/qsim/vga.vt
quartus_eda --functional=off --timescale=1ps --simulation=on --tool=modelsim_oem --format=verilog vga -c vga
quartus_eda --gen_testbench --check_outputs=on --tool=modelsim_oem --format=verilog vga -c vga --vector_source=C:/Users/Luciana/Documents/VLSI/finalvlsi/Waveform2.vwf --testbench_file=./simulation/qsim/vga.vt
quartus_eda --functional=off --timescale=1ps --simulation=on --tool=modelsim_oem --format=verilog vga -c vga
quartus_eda --gen_testbench --check_outputs=on --tool=modelsim_oem --format=verilog vga -c vga --vector_source=C:/Users/Luciana/Documents/VLSI/finalvlsi/Waveform2.vwf --testbench_file=./simulation/qsim/vga.vt
quartus_eda --functional=off --timescale=1ps --simulation=on --tool=modelsim_oem --format=verilog vga -c vga
quartus_eda --gen_testbench --check_outputs=on --tool=modelsim_oem --format=verilog vga -c vga --vector_source=C:/Users/Luciana/Documents/VLSI/finalvlsi/Waveform2.vwf --testbench_file=./simulation/qsim/vga.vt
quartus_eda --functional=off --timescale=1ps --simulation=on --tool=modelsim_oem --format=verilog vga -c vga
quartus_eda --gen_testbench --check_outputs=on --tool=modelsim_oem --format=verilog vga -c vga --vector_source=C:/Users/Luciana/Documents/VLSI/finalvlsi/Waveform2.vwf --testbench_file=C:/Users/Luciana/Documents/VLSI/finalvlsi/simulation/modelsim/Waveform2.vwf.vt
quartus_eda --gen_testbench --check_outputs=on --tool=modelsim_oem --format=verilog vga -c vga --vector_source=C:/Users/Luciana/Documents/VLSI/finalvlsi/Waveform2.vwf --testbench_file=./simulation/qsim/vga.vt
quartus_eda --functional=off --timescale=1ps --simulation=on --tool=modelsim_oem --format=verilog vga -c vga



